Calculate ecosystem function and benefit scores for wetlands • wespr
…
Similarly, we can extract the original responses with get_responses():

get_responses(site)
#> # A tibble: 501 × 4
#>    no    question                           response_no value
#>    <chr> <chr>                              <chr>       <dbl>
#>  1 F1    Vegetation Height & Form Diversity F1_1            1
#>  2 F1    Vegetation Height & Form Diversity F1_2            1
#>  3 F1    Vegetation Height & Form Diversity F1_3            1
#>  4 F1    Vegetation Height & Form Diversity F1_4            2
#>  5 F1    Vegetation Height & Form Diversity F1_5            1
#>  6 F1    Vegetation Height & Form Diversity F1_6            1
#>  7 F10   Dense Moss Extent                  F10_1           0
#>  8 F10   Dense Moss Extent                  F10_2           0
#>  9 F10   Dense Moss Extent                  F10_3           0
#> 10 F10   Dense Moss Extent                  F10_4           1
#> # ℹ 491 more rows

We can also get out a data.frame of derived values, those values which are calculated from the responses, and used as inputs into many indicators.

get_derived_values(site)
#> # A tibble: 41 × 2
#>    name         value
#>    <chr>        <dbl>
#>  1 AllWater         0
#>  2 NeverWater       0
#>  3 NoSeasonal       0
#>  4 NoPersis         0
#>  5 TempWet          0
#>  6 AllPermW         0
#>  7 HiFlucW          0
#>  8 TooShallow       0
#>  9 NoPond           0
#> 10 NoDeepPonded     1
#> # ℹ 31 more rows
…
