Calculate Wespr Scores • wespr
…
Similarly, we can extract the original responses with
get_responses():

get_responses(site)
#> # A tibble: 498 × 4
#>    no    question                           response_no value
#>    <chr> <chr>                              <chr>       <dbl>
#>  1 F1    Vegetation Height & Form Diversity F1_1            0
#>  2 F1    Vegetation Height & Form Diversity F1_2            3
#>  3 F1    Vegetation Height & Form Diversity F1_3            0
#>  4 F1    Vegetation Height & Form Diversity F1_4            4
#>  5 F1    Vegetation Height & Form Diversity F1_5            0
#>  6 F1    Vegetation Height & Form Diversity F1_6            1
#>  7 F10   Dense Moss Extent                  F10_1           1
#>  8 F10   Dense Moss Extent                  F10_2           0
#>  9 F10   Dense Moss Extent                  F10_3           0
#> 10 F10   Dense Moss Extent                  F10_4           0
#> # ℹ 488 more rows

We can also get out a data.frame of derived values, those values
which are calculated from the responses, and used as inputs into many
indicators.

get_derived_values(site)
#> # A tibble: 41 × 2
#>    name         value
#>    <chr>        <dbl>
#>  1 AllWater         0
#>  2 NeverWater       0
#>  3 NoSeasonal       0
#>  4 NoPersis         0
#>  5 TempWet          0
#>  6 AllPermW         0
#>  7 HiFlucW          0
#>  8 TooShallow       0
#>  9 NoPond           0
#> 10 NoDeepPonded     0
#> # ℹ 31 more rows
…
